<?xml version="1.0" standalone="no"?>
<!DOCTYPE svg PUBLIC "-//W3C//DTD SVG 1.1//EN" "http://www.w3.org/Graphics/SVG/1.1/DTD/svg11.dtd" >
<svg xmlns="http://www.w3.org/2000/svg">
<metadata>Generated by IcoMoon</metadata>
<defs>
<font id="icomoon" horiz-adv-x="1024">
<font-face units-per-em="1024" ascent="960" descent="-64" />
<missing-glyph horiz-adv-x="1024" />
<glyph unicode="&#x20;" horiz-adv-x="512" d="" />
<glyph unicode="&#xe900;" glyph-name="caret" horiz-adv-x="683" d="M682.667 448l-682.667-512v1024z" />
<glyph unicode="&#xe901;" glyph-name="spotify" d="M512 960c-282.77 0-512-229.23-512-512s229.23-512 512-512c282.77 0 512 229.23 512 512s-229.23 512-512 512zM734.829 216.948c-6.511-11.139-18.227-17.35-30.261-17.353-6.001 0-12.078 1.544-17.633 4.789-92.008 53.77-198.298 62.412-271.282 60.192-80.844-2.459-140.132-18.418-140.721-18.581-18.636-5.091-37.895 5.876-43.007 24.51-5.11 18.631 5.819 37.878 24.445 43.009 2.672 0.735 66.47 18.064 155.188 20.99 52.257 1.724 102.565-1.918 149.506-10.823 59.455-11.278 113.689-31.075 161.201-58.842 16.697-9.755 22.319-31.2 12.564-47.892zM799.921 352.137c-7.71-13.196-21.589-20.552-35.845-20.554-7.107 0-14.307 1.827-20.887 5.672-108.982 63.693-234.89 73.924-321.338 71.298-95.764-2.914-165.992-21.818-166.689-22.010-22.070-6.022-44.887 6.958-50.942 29.031-6.053 22.072 6.894 44.868 28.956 50.947 3.165 0.872 78.735 21.399 183.823 24.864 61.904 2.040 121.493-2.272 177.095-12.82 70.426-13.361 134.667-36.81 190.945-69.698 19.778-11.556 26.44-36.956 14.882-56.73zM839.935 475.058c-8.718 0-17.549 2.241-25.621 6.958-259.098 151.422-595.198 61.401-598.562 60.472-27.089-7.464-55.092 8.445-62.553 35.532-7.464 27.086 8.445 55.092 35.532 62.553 3.881 1.070 96.576 26.248 225.478 30.498 75.936 2.5 149.025-2.787 217.226-15.724 86.385-16.388 165.187-45.15 234.215-85.492 24.256-14.175 32.428-45.33 18.253-69.586-9.458-16.187-26.48-25.211-43.967-25.211z" />
<glyph unicode="&#xe902;" glyph-name="gitlab" horiz-adv-x="1186" d="M680.643 189.348l-87.801-253.347-524.281 629.944 742.598 0.002-218.316-629.946 524.281 629.944h-305.966l-130.515-376.597zM68.561 565.946l524.281-629.944-574.205 391.131c-15.844 10.789-22.473 29.917-16.422 47.378l66.346 191.435zM68.561 565.946l131.488 379.412c6.763 19.522 36.221 19.522 42.987 0l131.491-379.412h-305.966zM1117.123 565.946l66.346-191.435c6.051-17.461-0.578-36.589-16.422-47.378l-574.205-391.131 524.281 629.944zM1117.123 565.946h-305.966l131.491 379.412c6.767 19.522 36.224 19.522 42.987 0l131.488-379.412z" />
<glyph unicode="&#xe903;" glyph-name="dribbble" d="M512 960c-282.795 0-512-229.248-512-512s229.205-512 512-512c282.795 0 512 229.248 512 512s-229.205 512-512 512zM933.76 471.851c-109.867 18.005-210.901 18.987-303.061 3.115-10.411 24.021-21.205 48-32.725 71.68 98.56 42.667 177.707 100.608 236.715 174.165 57.6-68.011 93.739-154.411 99.072-248.96zM769.835 782.549c-51.413-66.304-122.368-118.741-212.736-157.013-43.349 79.403-92.928 156.843-148.821 232.021 33.237 8.405 67.883 13.397 103.723 13.397 97.067 0 186.368-33.237 257.835-88.405zM321.152 824.917c56.789-74.325 107.136-150.955 150.912-229.589-103.68-30.507-227.456-46.165-370.517-47.147 29.525 120.96 110.976 221.568 219.605 276.736zM89.045 448l0.555 10.923c164.224 0.213 305.877 19.115 424.533 56.405 9.941-20.267 19.456-40.619 28.587-61.099-144.213-45.099-263.040-137.472-355.712-276.48-61.099 73.344-97.963 167.552-97.963 270.251zM252.416 114.773c84.011 131.755 191.232 217.515 324.181 257.152 39.595-103.253 68.651-209.493 87.168-318.293-142.891-55.083-296.661-28.416-411.349 61.141zM746.752 96.427c-18.688 100.395-46.080 198.528-81.92 294.272 80.043 11.307 168.107 8.363 264.491-8.363-18.645-118.869-86.528-221.525-182.571-285.909z" />
<glyph unicode="&#xe904;" glyph-name="behance" horiz-adv-x="1566" d="M1414.317 815.091h-392.411v102.427h392.444v-102.427h-0.033zM760.668 395.072c25.32-41.212 37.973-91.251 37.973-149.998 0-60.752-14.266-115.252-43.289-163.393-18.464-31.857-41.388-58.766-68.933-80.43-31.022-25.054-67.75-42.233-109.972-51.412-42.357-9.194-88.202-13.839-137.586-13.839h-438.861v1024h470.611c118.623-2.028 202.721-38.143 252.382-109.069 29.799-43.5 44.563-95.697 44.563-156.368 0-62.604-14.943-112.696-45.033-150.755-16.738-21.339-41.465-40.749-74.198-58.269 49.581-19.073 87.201-49.109 112.342-90.466zM224.735 556.288h206.202c42.375 0 76.63 8.464 103.014 25.383 26.365 16.893 39.52 46.92 39.52 90.034 0 47.632-17.419 79.248-52.341 94.465-30.017 10.572-68.423 16.016-115.026 16.016h-181.37v-225.898zM593.327 259.702c0 53.192-20.689 89.965-61.982 109.697-23.092 11.215-55.672 16.946-97.447 17.356h-209.163v-272.891h205.926c42.306 0 75.050 5.82 98.681 17.96 42.615 22.322 63.985 64.804 63.985 127.879zM1559.913 426.29c4.741-33.502 6.885-82.11 6.015-145.643h-508.216c2.804-73.715 27.021-125.265 72.949-154.765 27.698-18.5 61.28-27.533 100.603-27.533 41.465 0 75.261 11.016 101.277 33.659 14.175 12.003 26.678 28.945 37.489 50.322h186.278c-4.879-43.538-27.308-87.696-67.615-132.569-62.448-71.324-150.031-107.087-262.512-107.087-92.921 0-174.812 30.162-245.894 90.267-70.845 60.316-106.425 158.136-106.425 293.831 0 127.247 31.943 224.643 96.045 292.435 64.338 67.918 147.37 101.723 249.717 101.723 60.664 0 115.35-11.394 164.137-34.302 48.634-22.93 88.828-59.019 120.484-108.618 28.648-43.68 47.072-94.185 55.669-151.719zM1376.558 407.182c-3.415 50.972-19.611 89.552-48.772 115.918-28.921 26.439-65.052 39.712-108.162 39.712-46.919 0-83.148-14.187-108.89-42.073-25.917-27.828-42.044-65.661-48.652-113.561l314.477 0.004z" />
<glyph unicode="&#xe905;" glyph-name="linkedin" d="M1024 332.186v-396.186h-219.476v369.652c0 92.86-31.745 156.233-111.188 156.233-60.645 0-96.735-42.709-112.612-84.022-5.79-14.769-7.28-35.327-7.28-56.001v-385.862h-219.55c0 0 2.957 626.070 0 690.935h219.529v-97.937c-0.445-0.732-1.024-1.522-1.443-2.232h1.443v2.232c29.167 47.012 81.255 114.169 197.845 114.169 144.447 0.002 252.733-98.752 252.733-310.981zM124.235 960c-75.108 0-124.235-51.556-124.235-119.354 0-66.32 47.705-119.441 121.321-119.441h1.467c76.562 0 124.177 53.111 124.177 119.441-1.443 67.798-47.615 119.354-122.73 119.354zM13.039-64h219.467v690.935h-219.467v-690.935z" />
<glyph unicode="&#xe906;" glyph-name="instagram" d="M511.999 867.746c136.711 0 152.903-0.52 206.891-2.984 49.919-2.278 77.030-10.619 95.073-17.629 23.897-9.288 40.955-20.385 58.87-38.3s29.012-34.973 38.298-58.87c7.012-18.044 15.353-45.154 17.631-95.071 2.463-53.99 2.984-70.182 2.984-206.893s-0.52-152.903-2.984-206.891c-2.278-49.919-10.619-77.030-17.631-95.073-9.286-23.897-20.383-40.955-38.298-58.87s-34.973-29.012-58.87-38.298c-18.044-7.012-45.154-15.353-95.073-17.631-53.98-2.463-70.172-2.984-206.891-2.984s-152.911 0.52-206.891 2.984c-49.919 2.278-77.030 10.619-95.071 17.631-23.899 9.286-40.957 20.383-58.872 38.298s-29.012 34.973-38.298 58.87c-7.012 18.044-15.353 45.154-17.631 95.071-2.463 53.99-2.984 70.182-2.984 206.893s0.52 152.903 2.984 206.891c2.278 49.919 10.619 77.030 17.631 95.073 9.286 23.897 20.383 40.955 38.298 58.87s34.973 29.012 58.872 38.3c18.042 7.010 45.152 15.351 95.069 17.629 53.99 2.463 70.182 2.984 206.893 2.984zM511.999 960c-139.052 0-156.486-0.589-211.096-3.081-54.498-2.488-91.716-11.142-124.285-23.799-33.669-13.085-62.222-30.591-90.685-59.055s-45.971-57.017-59.055-90.685c-12.658-32.569-21.312-69.786-23.799-124.285-2.492-54.608-3.079-72.044-3.079-211.096s0.587-156.488 3.079-211.096c2.488-54.498 11.142-91.716 23.799-124.285 13.085-33.666 30.591-62.222 59.055-90.685s57.017-45.971 90.685-59.055c32.569-12.658 69.786-21.312 124.285-23.799 54.61-2.492 72.044-3.079 211.096-3.079s156.488 0.587 211.096 3.079c54.498 2.488 91.716 11.142 124.285 23.799 33.669 13.085 62.222 30.591 90.685 59.055s45.971 57.017 59.055 90.685c12.658 32.569 21.312 69.786 23.799 124.285 2.492 54.608 3.081 72.044 3.081 211.096s-0.589 156.488-3.081 211.096c-2.488 54.498-11.142 91.716-23.799 124.285-13.085 33.669-30.591 62.222-59.055 90.685s-57.017 45.971-90.685 59.055c-32.569 12.658-69.786 21.312-124.285 23.799-54.608 2.492-72.044 3.081-211.096 3.081zM511.999 710.919c-145.206 0-262.92-117.714-262.92-262.92s117.714-262.92 262.92-262.92c145.206 0 262.92 117.714 262.92 262.92s-117.714 262.92-262.92 262.92zM511.999 277.331c-94.256 0-170.668 76.412-170.668 170.668s76.412 170.668 170.668 170.668c94.256 0 170.668-76.412 170.668-170.668s-76.412-170.668-170.668-170.668zM846.745 721.306c0-33.933-27.506-61.441-61.439-61.441s-61.441 27.508-61.441 61.441c0 33.933 27.508 61.439 61.441 61.439s61.439-27.506 61.439-61.439z" />
<glyph unicode="&#xe907;" glyph-name="facebook" horiz-adv-x="536" d="M348.453-64v466.35h158.834l23.681 182.587h-182.515v116.253c0 52.766 14.885 88.781 91.173 88.781h96.755v162.821c-47.084 4.935-94.403 7.34-141.749 7.203-140.396 0-236.813-84.928-236.813-240.713v-134.009h-157.819v-182.587h158.157v-466.686h190.296z" />
<glyph unicode="&#xe908;" glyph-name="arrow" horiz-adv-x="1792" d="M1109.333 533.333v426.667l682.667-512-682.667-512v426.667h-1109.333v170.667h1109.333z" />
<glyph unicode="&#xe909;" glyph-name="icoN-prev" horiz-adv-x="1946" d="M614.4 550.4v409.6l-614.4-512 614.4-512v409.6h1331.2v204.8h-1331.2z" />
<glyph unicode="&#xe90a;" glyph-name="tiwtter" horiz-adv-x="1229" d="M821.047 959.773v0.227h57.617l21.052-4.319c14.035-2.804 26.778-6.478 38.227-11.024 11.45-4.546 22.531-9.85 33.241-15.911s20.425-12.237 29.142-18.525c8.643-6.213 16.399-12.805 23.269-19.775 6.794-7.046 17.395-8.865 31.799-5.455s29.917 8.145 46.537 14.206c16.62 6.061 33.057 12.88 49.307 20.457s26.151 12.388 29.696 14.434c3.471 2.121 5.319 3.257 5.54 3.41l0.22 0.341 4.432 2.273 0.222 0.341 0.332 0.227 0.334 0.227 0.22 0.341 1.108 0.341 1.108 0.227-0.22-1.705-0.334-1.705-1.108-3.41-1.108-2.273-0.554-1.705c-0.369-1.137-0.738-2.651-1.108-4.546s-3.878-9.471-10.526-22.73-14.958-26.708-24.931-40.346c-9.972-13.638-18.91-23.942-26.813-30.913-7.978-7.046-13.26-11.971-15.846-14.775-2.585-2.879-5.724-5.53-9.418-7.956l-5.54-3.75-2.216-1.137-0.22-0.341-0.334-0.227-0.332-0.227-0.222-0.341-2.216-1.137-0.22-0.341-0.334-0.227-0.332-0.227-0.222-0.341-0.221-0.341-0.334-0.227-0.332-0.227-0.222-0.341h5.54l31.025 6.819c20.684 4.546 40.443 10.039 59.279 16.479l34.903 11.933 4.432 2.273 2.216 0.341 2.216 0.227v-2.273l-0.554-0.227-0.554-0.341-0.221-0.341-0.334-0.227-0.332-0.227-0.222-0.341-0.22-0.341-0.334-0.227-0.332-0.227-0.222-0.341-0.221-0.341-0.334-0.227-1.108-2.273-0.332-0.227c-0.147-0.227-4.838-6.667-14.072-19.321-9.233-12.729-14.219-19.168-14.958-19.321-0.738-0.227-1.773-1.364-3.102-3.41-1.255-2.121-9.086-10.57-23.49-25.344s-28.512-27.92-42.325-39.437c-13.887-11.592-20.905-25.836-21.052-42.733-0.222-16.82-1.071-35.839-2.55-57.053-1.477-21.215-4.247-44.134-8.31-68.759s-10.341-52.469-18.836-83.534c-8.494-31.064-18.836-61.372-31.025-90.921s-24.931-56.068-38.227-79.556c-13.296-23.488-25.485-43.377-36.565-59.667s-22.344-31.633-33.795-46.029c-11.449-14.396-25.927-30.611-43.433-48.643-17.581-17.957-27.183-27.807-28.809-29.549-1.699-1.667-8.937-7.881-21.718-18.639-12.705-10.834-26.371-21.669-40.997-32.504-14.552-10.759-27.922-19.738-40.111-26.935s-26.887-15.418-44.099-24.662c-17.137-9.319-35.678-17.957-55.623-25.913s-40.997-15.343-63.157-22.162c-22.161-6.819-43.582-12.123-64.265-15.911s-44.136-7.009-70.36-9.66l-39.335-3.978v-0.568h-72.022v0.568l-9.418 0.568c-6.278 0.378-11.449 0.758-15.512 1.137s-19.39 2.463-45.983 6.251-47.46 7.577-62.603 11.365c-15.142 3.788-37.673 10.987-67.59 21.594s-55.512 21.329-76.786 32.163c-21.2 10.759-34.496 17.578-39.889 20.457-5.319 2.804-11.302 6.288-17.95 10.456l-9.972 6.251-0.22 0.341-0.334 0.227-0.332 0.227-0.222 0.341-2.216 1.137-0.22 0.341-0.334 0.227-0.332 0.227-0.222 0.341-0.22 0.341-0.334 0.227h-0.554v2.273l1.108-0.227 1.108-0.341 4.986-0.568c3.324-0.378 12.373-0.947 27.147-1.705s30.471-0.758 47.091 0 33.611 2.463 50.969 5.114c17.359 2.651 37.858 7.198 61.495 13.638 23.639 6.441 45.356 14.093 65.153 22.958 19.723 8.94 33.757 15.608 42.105 20.003 8.273 4.319 20.904 12.351 37.893 24.094l25.485 17.616 0.222 0.341 0.332 0.227 0.334 0.227 0.22 0.341 0.222 0.341 0.332 0.227 0.334 0.227 0.22 0.341 1.108 0.341 1.108 0.227 0.222 1.137 0.332 1.137 0.334 0.227 0.22 0.341-8.864 0.568c-5.909 0.378-11.634 0.758-17.174 1.137s-14.219 2.083-26.039 5.114c-11.818 3.031-24.56 7.577-38.227 13.638-13.665 6.061-26.962 13.26-39.889 21.594-12.926 8.334-22.271 15.268-28.033 20.798-5.687 5.456-13.075 13.184-22.161 23.185-9.012 10.076-16.842 20.42-23.49 31.027s-13 22.845-19.057 36.709l-9.198 20.685-1.108 3.41-0.332 1.137-0.222 1.137 1.662-0.227 1.662-0.341 12.188-1.705c8.126-1.137 20.869-1.515 38.227-1.137 17.359 0.378 29.363 1.137 36.011 2.273s10.711 1.895 12.188 2.273l2.216 0.568 5.54 1.137 0.222 0.341 0.332 0.227 0.334 0.227 0.22 0.341-11.080 2.841c-1.477 0.378-4.062 1.137-7.756 2.273s-13.665 5.304-29.917 12.502c-16.25 7.198-29.178 14.206-38.781 21.026-9.627 6.839-18.806 14.318-27.479 22.389-8.643 8.183-18.134 18.715-28.476 31.595-10.341 12.88-19.574 27.845-27.701 44.892-8.125 17.048-14.219 33.337-18.282 48.87-4.047 15.441-6.717 31.228-7.977 47.165l-1.996 23.867 1.108-0.227 1.108-0.341 4.432-2.273 17.174-7.956c11.45-5.304 25.67-9.85 42.659-13.638 16.99-3.788 27.147-5.872 30.471-6.251l4.986-0.568h9.972l-0.22 0.341-0.334 0.227-0.332 0.227-0.222 0.341-0.22 0.341-0.334 0.227-0.332 0.227-0.222 0.341-2.216 1.137-0.22 0.341-0.334 0.227-0.332 0.227-0.222 0.341-2.216 1.137-0.22 0.341c-0.222 0.152-3.398 2.576-9.53 7.274-6.058 4.773-12.41 10.948-19.058 18.525s-13.296 15.533-19.944 23.867c-6.66 8.353-12.593 17.29-17.728 26.708-5.17 9.471-10.637 21.519-16.399 36.141-5.687 14.547-10.009 29.208-12.964 43.983s-4.616 29.36-4.986 43.756c-0.369 14.396 0 26.708 1.108 36.937s3.324 21.784 6.648 34.664c3.324 12.88 8.126 26.518 14.404 40.915l9.418 21.594 1.108 3.41 0.334 0.227 0.22 0.341 0.222 0.341 0.332 0.227 0.334-0.227 0.22-0.341 0.222-0.341 0.332-0.227 0.334-0.227 0.22-0.341 0.222-0.341 0.332-0.227 1.108-2.273 0.334-0.227 0.22-0.341 14.958-17.048c9.972-11.365 21.792-24.057 35.457-38.073 13.666-14.017 21.238-21.29 22.715-21.821 1.478-0.606 3.324-2.348 5.54-5.228 2.216-2.804 9.603-9.509 22.161-20.116s28.994-22.92 49.307-36.937c20.315-14.017 42.844-27.845 67.59-41.483 24.747-13.638 51.339-25.95 79.778-36.937s48.384-18.184 59.833-21.594c11.45-3.41 31.025-7.766 58.725-13.070s48.569-8.714 62.603-10.229c14.035-1.515 23.639-2.387 28.809-2.614l7.756-0.227-0.22 1.705-0.334 1.705-2.216 14.206c-1.477 9.471-2.216 22.73-2.216 39.778s1.293 32.769 3.878 47.165c2.586 14.396 6.464 28.981 11.634 43.756 5.171 14.775 10.232 26.633 15.18 35.573 5.024 8.865 11.598 18.98 19.723 30.345s18.652 23.109 31.579 35.232c12.927 12.123 27.701 22.92 44.321 32.391s31.949 16.669 45.983 21.594c14.035 4.925 25.855 8.145 35.457 9.66s14.404 2.387 14.404 2.614z" />
</font></defs></svg>